learningr
…
starwars %>%

filter(if_any(everything(), ~ !is.na(.x)))

# A tibble: 87 × 14
   name     height  mass hair_color skin_color eye_color birth_year sex   gender
   <chr>     <int> <dbl> <chr>      <chr>      <chr>          <dbl> <chr> <chr> 
 1 Luke Sk…    172    77 blond      fair       blue            19   male  mascu…
 2 C-3PO       167    75 <NA>       gold       yellow         112   none  mascu…
 3 R2-D2        96    32 <NA>       white, bl… red             33   none  mascu…
 4 Darth V…    202   136 none       white      yellow          41.9 male  mascu…
 5 Leia Or…    150    49 brown      light      brown           19   fema… femin…
 6 Owen La…    178   120 brown, gr… light      blue            52   male  mascu…
 7 Beru Wh…    165    75 brown      light      blue            47   fema… femin…
 8 R5-D4        97    32 <NA>       white, red red             NA   none  mascu…
 9 Biggs D…    183    84 black      light      brown           24   male  mascu…
10 Obi-Wan…    182    77 auburn, w… fair       blue-gray       57   male  mascu…
# ℹ 77 more rows
# ℹ 5 more variables: homeworld <chr>, species <chr>, films <list>,
#   vehicles <list>, starships <list>

if_all() keeps the rows where the predicate is true for all selected columns:

starwars %>%

filter(if_all(everything(), ~ !is.na(.x)))

# A tibble: 29 × 14
   name     height  mass hair_color skin_color eye_color birth_year sex   gender
   <chr>     <int> <dbl> <chr>      <chr>      <chr>          <dbl> <chr> <chr> 
 1 Luke Sk…    172    77 blond      fair       blue            19   male  mascu…
 2 Darth V…    202   136 none       white      yellow          41.9 male  mascu…
 3 Leia Or…    150    49 brown      light      brown           19   fema… femin…
 4 Owen La…    178   120 brown, gr… light      blue            52   male  mascu…
 5 Beru Wh…    165    75 brown      light      blue            47   fema… femin…
 6 Biggs D…    183    84 black      light      brown           24   male  mascu…
 7 Obi-Wan…    182    77 auburn, w… fair       blue-gray       57   male  mascu…
 8 Anakin …    188    84 blond      fair       blue            41.9 male  mascu…
 9 Chewbac…    228   112 brown      unknown    blue           200   male  mascu…
10 Han Solo    180    80 brown      fair       brown           29   male  mascu…
# ℹ 19 more rows
# ℹ 5 more variables: homeworld <chr>, species <chr>, films <list>,
#   vehicles <list>, starships <list>
…
