…
when do you sue data and when do use .data (okay answer apparently when you use … you start other variables with "." eg. .data to avoid conflictino (20 Dot prefix | Tidyverse design guide

)

f you want the user to provide a set of data-variables that are then transformed, use across():

my_summarise <- function(data, summary_vars) {
  data %>%
    summarise(across({{ summary_vars }}, ~ mean(., na.rm = TRUE)))
}
starwars %>% 
  group_by(species) %>% 
  my_summarise(c(mass, height))
#> # A tibble: 38 × 3
#>   species   mass height
#>   <chr>    <dbl>  <dbl>
#> 1 Aleena      15     79
#> 2 Besalisk   102    198
#> 3 Cerean      82    198
#> 4 Chagrian   NaN    196
#> # … with 34 more rows
…
