time series
…
Use filter_by_time() to filter times series with greater flexibility

you can put a start date with one granularity (2013) and end date with a different (2015-02-01) or use “start” and “end” for the min and max of the dataset

filter_by_time( .date_var=data column start_date= “2013” “2013-01” “2013-01-5” or mix and match end_date=“end” or date )

df_daily %>% 
  filter_by_time(
    .date_var=date_key
    ,.start_date = "2007-06"
    ,.end_date ='end'
  )

# A tibble: 488 × 5
   date_key        rev   vol mean_up price_realization
   <date>        <dbl> <int>   <dbl>             <dbl>
 1 2007-06-01 3359499. 12654    272.              265.
 2 2007-06-02 3310566. 12114    284.              273.
 3 2007-06-03 3174698. 12019    268.              264.
 4 2007-06-04 3381944. 12728    275.              266.
 5 2007-06-05 2837094. 10669    257.              266.
 6 2007-06-06 3118597. 12811    263.              243.
 7 2007-06-07 3384011. 13148    274.              257.
 8 2007-06-08 3266643. 11736    278.              278.
 9 2007-06-09 3170065. 12361    271.              256.
10 2007-06-10 3298238. 11637    276.              283.
# ℹ 478 more rows
…
Get underlying anomaly data tk::anomoly_diaogasitc( .data_var=data_col .alpha= .01 #change anomoly sensitivity .max_anolomoies =.01 # peak anomoly )

df_daily %>% 
  timetk::tk_anomaly_diagnostics(
    .date_var = date_key
    ,.value=rev
    ,.alpha = .3
  )

frequency = 7 observations per 1 week

trend = 92 observations per 3 months

# A tibble: 639 × 11
   date_key   observed  season    trend remainder  seasadj remainder_l1
   <date>        <dbl>   <dbl>    <dbl>     <dbl>    <dbl>        <dbl>
 1 2007-01-01 1913298. -10795. 2074529.  -150437. 1924092.     -282293.
 2 2007-01-02 2113239.   1694. 2081589.    29956. 2111545.     -282293.
 3 2007-01-03 1981877. -19457. 2088648.   -87314. 2001334.     -282293.
 4 2007-01-04 2040335.   1083. 2095708.   -56456. 2039252.     -282293.
 5 2007-01-05 1976296.   7631. 2102768.  -134103. 1968665.     -282293.
 6 2007-01-06 2142579.  21701. 2109827.    11052. 2120879.     -282293.
 7 2007-01-07 2172520.  -1857. 2116887.    57490. 2174377.     -282293.
 8 2007-01-08 2230181. -10795. 2123947.   117029. 2240976.     -282293.
 9 2007-01-09 2252798.   1694. 2131006.   120098. 2251105.     -282293.
10 2007-01-10 2188425. -19457. 2138066.    69817. 2207882.     -282293.
# ℹ 629 more rows
# ℹ 4 more variables: remainder_l2 <dbl>, anomaly <chr>, recomposed_l1 <dbl>,
#   recomposed_l2 <dbl>
…
diff=2 is the change in your lagged values, it is the acceleration of difference diff_vec( lag ,difference=1 for normal 2 for acceleration )

df_daily %>% 
  mutate(vol_diff=diff_vec(vol,lag=1,diff=1)
         ,vol_acc=diff_vec(vol,lag=1,diff=2)
         ,lag_one=vol-lag(vol,n=1)
         ,lag_of_lag=lag_one-lag(lag_one,1)
           )

diff_vec(): Initial values: 8808

diff_vec(): Initial values: 8808, 9151

# A tibble: 639 × 9
   date_key        rev   vol mean_up price_realization vol_diff vol_acc lag_one
   <date>        <dbl> <int>   <dbl>             <dbl>    <int>   <int>   <int>
 1 2007-01-01 1913298.  8808    223.              217.       NA      NA      NA
 2 2007-01-02 2113239.  9151    226.              231.      343      NA     343
 3 2007-01-03 1981877.  8395    232.              236.     -756   -1099    -756
 4 2007-01-04 2040335.  8994    230.              227.      599    1355     599
 5 2007-01-05 1976296.  8064    238.              245.     -930   -1529    -930
 6 2007-01-06 2142579.  8265    241.              259.      201    1131     201
 7 2007-01-07 2172520.  9045    241.              240.      780     579     780
 8 2007-01-08 2230181.  8142    258.              274.     -903   -1683    -903
 9 2007-01-09 2252798.  8945    258.              252.      803    1706     803
10 2007-01-10 2188425.  8436    245.              259.     -509   -1312    -509
# ℹ 629 more rows
# ℹ 1 more variable: lag_of_lag <int>
…
