Excel to R: A Survivor’s Guide for the Corporate Environment - 3 Understanding a model outcome
…
Set draw=FALSE to return a dataframe with a group column

6.1 Predictions

counterfactual_predictions <- predictions(mod_simple,variables=list(avg_vol=c(4,1000)))

counterfactual_predictions %>% 

group_by(avg_vol) %>% 

summarize( 
    avg_rev=mean(estimate,na.rm=TRUE)
    )

# A tibble: 2 × 2
  avg_vol avg_rev
    <dbl>   <dbl>
1       4  35486.
2    1000 253805.

Alternatively you can use the datagrid() arguement to create new a dataset with each value at their average, median or mode value

use the FUN_factor() and FUN_numeric to sample datamodel

this will take overall mean or median values (not group specific)

based on these unique values and overall avg values it will do a prediction per mini group

predictions(
        mod_simple
        ,newdata=
        datagrid(
            FUN_numeric=median
            ,FUN_factor=unique)
) 

 Estimate Std. Error       z Pr(>|z|)     S  2.5 % 97.5 %
    45528        654  69.612   <0.001   Inf  44246  46810
    43660        726  60.154   <0.001   Inf  42238  45083
    89011        571 155.763   <0.001   Inf  87891  90131
    11977        846  14.153   <0.001 148.6  10318  13635
    77627        610 127.300   <0.001   Inf  76432  78823
--- 150 rows omitted. See ?avg_predictions and ?print.marginaleffects --- 
…
