Excel to R: A Survivor’s Guide for the Corporate Environment - 4 many_models
…
  nest_by(product) %>% 
  mutate(data=list(data)) %>% 
  expand_grid(filter_ls,indep_vars) %>% 
  mutate(
    type=names(filter_ls)
    ,.after = product
    ) %>% 
  rowwise() %>% 
  mutate(
    data=list(filter(data,eval(filter_ls)))
    ,mod=list(lm(reformulate(termlabels=indep_vars,response="csat"),data=data))
    ,modstat=list(broom::glance(mod))
  ) %>% unnest(modstat)

# A tibble: 40 × 18
   product type     data     filter_ls  indep_vars mod   r.squared adj.r.squared
   <chr>   <chr>    <list>   <named li> <chr>      <lis>     <dbl>         <dbl>
 1 All     All      <tibble> <lgl [1]>  postal_ra… <lm>    1.21e-4      -0.00801
 2 All     All      <tibble> <lgl [1]>  phone_rat… <lm>    5.48e-2       0.0470 
 3 All     All      <tibble> <lgl [1]>  email_rat… <lm>    9.69e-5      -0.00778
 4 All     All      <tibble> <lgl [1]>  website_r… <lm>    9.53e-3       0.00141
 5 All     All      <tibble> <lgl [1]>  shop_rati… <lm>    5.04e-3      -0.00318
 6 All     no_reac… <tibble> <language> postal_ra… <lm>    4.82e-4      -0.00972
 7 All     no_reac… <tibble> <language> phone_rat… <lm>    5.87e-2       0.0488 
 8 All     no_reac… <tibble> <language> email_rat… <lm>    1.26e-6      -0.00980
 9 All     no_reac… <tibble> <language> website_r… <lm>    2.41e-2       0.0140 
10 All     no_reac… <tibble> <language> shop_rati… <lm>    4.21e-3      -0.00605
# ℹ 30 more rows
# ℹ 10 more variables: sigma <dbl>, statistic <dbl>, p.value <dbl>, df <dbl>,
#   logLik <dbl>, AIC <dbl>, BIC <dbl>, deviance <dbl>, df.residual <int>,
#   nobs <int>
…
pull(data_mod) %>% .[[1]]

# A tibble: 1,610 × 10
   carat color clarity depth table price     x     y     z price_cumsum
   <dbl> <ord> <ord>   <dbl> <dbl> <int> <dbl> <dbl> <dbl>        <int>
 1  0.22 E     VS2      65.1    61   337  3.87  3.78  2.49          337
 2  0.86 E     SI2      55.1    69  2757  6.45  6.33  3.52         3094
 3  0.96 F     SI2      66.3    62  2759  6.27  5.95  4.07         5853
 4  0.7  F     VS2      64.5    57  2762  5.57  5.53  3.58         8615
 5  0.7  F     VS2      65.3    55  2762  5.63  5.58  3.66        11377
 6  0.91 H     SI2      64.4    57  2763  6.11  6.09  3.93        14140
 7  0.91 H     SI2      65.7    60  2763  6.03  5.99  3.95        16903
 8  0.98 H     SI2      67.9    60  2777  6.05  5.97  4.08        19680
 9  0.84 G     SI1      55.1    67  2782  6.39  6.2   3.47        22462
10  1.01 E     I1       64.5    58  2788  6.29  6.21  4.03        25250
# ℹ 1,600 more rows
…
