Excel to R: A Survivor’s Guide for the Corporate Environment - 1 Tidy Select Verbs (Basic)
…
Although we have tidyselect verbs that we can use in select() what if you want to use them in group_by() or filter()

For these verbs we will need to wrap the tidyselect verbs in pick() and then they will work!

diamonds |> 
  group_by(
    pick(where(is.factor))
  ) |> 
  summarize(
    n=n()
    ,.groups="drop"
  )

# A tibble: 276 × 4
   cut   color clarity     n
   <ord> <ord> <ord>   <int>
 1 Fair  D     I1          4
 2 Fair  D     SI2        56
 3 Fair  D     SI1        58
 4 Fair  D     VS2        25
 5 Fair  D     VS1         5
 6 Fair  D     VVS2        9
 7 Fair  D     VVS1        3
 8 Fair  D     IF          3
 9 Fair  E     I1          9
10 Fair  E     SI2        78
# ℹ 266 more rows
…
Fair
D
VVS2
9

diamonds |> 
  filter(
    all(pick(x:z)>-1)
  )

# A tibble: 53,940 × 10
   carat cut       color clarity depth table price     x     y     z
   <dbl> <ord>     <ord> <ord>   <dbl> <dbl> <int> <dbl> <dbl> <dbl>
 1  0.23 Ideal     E     SI2      61.5    55   326  3.95  3.98  2.43
 2  0.21 Premium   E     SI1      59.8    61   326  3.89  3.84  2.31
 3  0.23 Good      E     VS1      56.9    65   327  4.05  4.07  2.31
 4  0.29 Premium   I     VS2      62.4    58   334  4.2   4.23  2.63
 5  0.31 Good      J     SI2      63.3    58   335  4.34  4.35  2.75
 6  0.24 Very Good J     VVS2     62.8    57   336  3.94  3.96  2.48
 7  0.24 Very Good I     VVS1     62.3    57   336  3.95  3.98  2.47
 8  0.26 Very Good H     SI1      61.9    55   337  4.07  4.11  2.53
 9  0.22 Fair      E     VS2      65.1    61   337  3.87  3.78  2.49
10  0.23 Very Good H     VS1      59.4    61   338  4     4.05  2.39
# ℹ 53,930 more rows
…
